title,director,duration,rate
Побег из Шоушенка,Фрэнк Дарабонт,142,9.109
Зеленая миля,Фрэнк Дарабонт,189,9.061
Форрест Гамп,Роберт Земекис,142,8.909
Король Лев,Роджер Аллерс,88,8.771
Интерстеллар,Кристофер Нолан,169,8.601
Начало,Кристофер Нолан,148,8.660
Властелин колец: Возвращение короля,Питер Джексон,201,8.633
Иван Васильевич меняет профессию,Леонид Гайдай,88,8.781
Список Шиндлера,Стивен Спилберг,195,8.817
Назад в будущее,Роберт Земекис,116,8.628